{
    "development": {
        "username": "postgres",
        "password": "secur4u",
        "database": "traveldesk-dev",
        "host": "127.0.0.1",
        "port": 5432,
        "dialect": "postgres"
    },
    "test": {
        "username": "postgres",
        "password": "secur4u",
        "database": "traveldesk-dev",
        "host": "127.0.0.1",
        "port": 5432,
        "dialect": "postgres"
    }
}